{
    "/js/browser-update.js": "/js/browser-update.js?id=821d908c7b3e156a6036",
    "/css/transtune.css": "/css/transtune.css?id=961578d83ae4fd1d56c4",
    "/js/map.js": "/js/map.js?id=7368e79073be1599dc1b",
    "/js/quotation.js": "/js/quotation.js?id=03f96a73785fe92b2d67",
    "/js/selector.js": "/js/selector.js?id=550f9cb5d57a2a185da3",
    "/js/transtune.js": "/js/transtune.js?id=49aa26f438adbaafda69"
}
