<svg height="0" width="0">
  <defs>
    <clipPath id="member">
       <path d="M153.923018,204.445783 L2.32176419,204.445783 C1.63405777,204.445783 0.986395007,204.142825 0.543593318,203.615409 C0.101952314,203.087994 -0.0837574374,202.396598 0.0352128723,201.717994 L26.7733547,49.0600798 C31.7521171,20.6325754 56.2721881,0 85.0769313,0 L236.678766,0 C237.365892,0 238.013555,0.302376957 238.455776,0.82979215 C238.898578,1.35778884 239.083707,2.04918538 238.964737,2.72778905 L212.227175,155.385703 C207.248413,183.813208 182.727761,204.445783 153.923018,204.445783"></path>
    </clipPath>
  </defs>
</svg>